{
    "dependencies": [],
    "extending": null,
    "filters": [],
    "name": "admin_update_model",
    "notes": [],
    "output": [],
    "parameters": [],
    "properties": [],
    "servers": [
        "ADMIN"
    ],
    "tables": [],
    "transformation": null,
    "transformation_exceptions": []
}