{
    "dependencies" : [],
    "extending" : null, 
    "filters" : [],
    "name" : "brandcodes",
    "notes" : [],
    "output" : [
        "json",
        "table",
        "text"
    ],
    "parameters" : [
        "endtime",
        "line",
        "line_normalized",
        "starttime"
    ],
    "properties" : [
        {
            "field" : "Prod_Id",
            "type" : "integer"
        },
        {
            "field" : "id",
            "type" : "primary"
        },
        {
            "field" : "line",
            "type" : "string"
        },
        {
            "field" : "department",
            "type" : "string"
        },
        {
            "field" : "entry_date",
            "type" : "datetime"
        },
        {
            "field" : "entry_shift",
            "type" : "integer"
        },
        {
            "fields" : "entry_user",
            "type" : "string"
        },
        {
            "fields" : "entry_team",
            "type" : "string"
        },
        {
            "fields" : "text",
            "type" : "string"
        },
        {
            "fields" : "data_code",
            "type" : "string"
        },
        {
            "fields" : "data_status",
            "type" : "string"
        },
        {
            "fields" : "data_starttime",
            "type" : "datetime"
        },
        {
            "fields" : "data_endtime",
            "type" : "datetime"
        },
        {
            "fields" : "data_estimatedStart",
            "type" : "datetime"
        },
        {
            "fields" : "data_estimatedEnd",
            "type" : "datetime"
        },
        {
            "field" : "data_cases_target",
            "type" : "integer"
        },
        {
            "field" : "data_cases_remaining",
            "type" : "integer"
        },
        {
            "field" : "data_cases_produced",
            "type" : "integer"
        },
        {
            "field" : "data_casesize",
            "type" : "integer"
        },
        {
            "field" : "data_cansize",
            "type" : "string"
        }
    ],
    "servers" : [ "PROFICY" ],
    "tables" : [
        "Production_Plan",
        "Products_Base",
        "Production_Plan_Statuses",
        "Prdexec_Paths",
        "Products",
        "Product_Family",
        "Var_Specs"
    ],
    "transformation" : null,
    "transformation_exceptions": []
}