{
    "dependencies" : [], 
    "extending" : "defects",
    "filters" : [
        "Safety = 1"
    ],
    "name" : "defects_safety",
    "notes" : [],
    "output" : [
        "json",
        "table",
        "text"
    ],
    "parameters" : [
        "endtime",
        "line",
        "line_normalized",
        "starttime"
    ],
    "properties" : [
        { "field" : "id",               "type" : "integer"  },
        { "field" : "line",             "type" : "string"   },
        { "field" : "department",       "type" : "string"   },
        { "field" : "entry_date",       "type" : "datetime" },
        { "field" : "entry_shift",      "type" : "integer"  },
        { "field" : "entry_user",       "type" : "string"   },
        { "field" : "entry_team",       "type" : "string"   },
        { "field" : "text",             "type" : "string"   },
        { "field" : "data_status",      "type" : "integer"  },
        { "field" : "data_solved",      "type" : "datetime" },
        { "field" : "data_updated",     "type" : "datetime" },
        { "field" : "data_location",    "type" : "string"   },
        { "field" : "data_FLOC",        "type" : "string"   },
        { "field" : "data_quality",     "type" : "boolean"  },
        { "field" : "data_safety",      "type" : "boolean"  },
        { "field" : "data_critical",    "type" : "boolean"  },
        { "field" : "data_type",        "type" : "string"   },
        { "field" : "data_SAP",         "type" : "string"   },
        { "field" : "data_order",       "type" : "string"   },
        { "field" : "data_assigned",    "type" : "string"   },
        { "field" : "data_task",        "type" : "string"   }
    ],
    "servers" : [ "PSION" ],
    "tables" : [
        "${ resources.line }.defecten",
        "${ resources.line }.gebruikers"
    ],
    "transformation" : null,
    "transformation_exceptions": []
}