{
    "dependencies" : [],
    "extending" : null, 
    "filters" : [],
    "name" : "downtime",
    "notes" : [],
    "output" : [
        "json",
        "table",
        "text"
    ],
    "properties" : [
        { "field" : "id",               "type" : "integer"  },
        { "field" : "line",             "type" : "string"   },
        { "field" : "department",       "type" : "string"   },
        { "field" : "entry_date",       "type" : "datetime" },
        { "field" : "entry_shift",      "type" : "integer"  },
        { "field" : "entry_user",       "type" : "string"   },
        { "field" : "entry_team",       "type" : "string"   },
        { "field" : "data_duration",    "type" : "float"    },
        { "field" : "data_type",        "type" : "string"   },
        { "field" : "data_end",         "type" : "datetime" },
        { "field" : "data_area",        "type" : "string"   },
        { "field" : "data_location",    "type" : "string"   },
        { "field" : "data_failure",     "type" : "string"   },
        { "field" : "data_cause",       "type" : "string"   },
        { "field" : "data_reason",      "type" : "string"   },
        { "field" : "data_comments",    "type" : "string"   }
    ],
    "servers" : [ "PROFICY" ],
    "tables" : [
        "[GBDB].[dbo].[Timed_Event_Details]",
        "[GBDB].[dbo].[Comments]",
        "[GBDB].[dbo].[Timed_Event_Fault]",
        "[GBDB].[dbo].[Prod_Units]",
        "[GBDB].[dbo].[Prod_lines]"
    ],
    "transformation" : null,
    "transformation_exceptions": []
}