{
    "dependencies" : [],
    "extending" : "machine_stops", 
    "filters" : [
        "PU.PU_Desc LIKE '%QA Gasser-Seamer%'"
    ],
    "name" : "machine_stops_gs",
    "notes" : [],
    "properties" : [],
    "servers" : [
        "PROFICY"
    ],
    "transformation" : null,
    "transformation_exceptions": []
}