{
    "dependencies" : [],
    "extending" : null,
    "filters" : [],
    "name" : "partial_logbook_eni_mecpri02",
    "notes" : [],
    "output" : [
        "json",
        "table",
        "text"
    ],
    "parameters" : [
        "endtime",
        "line",
        "starttime"
    ],
    "properties" : [
        { "field" : "id",               "type" : "integer"  },
        { "field" : "date",             "type" : "datetime" },
        { "field" : "user",             "type" : "string"   },
        { "field" : "line",             "type" : "string"   },
        { "field" : "area",             "type" : "string"   },
        { "field" : "equipment",        "type" : "string"   },
        { "field" : "action",           "type" : "string"   }
    ],
    "servers" : [ "LOGBOOK" ],
    "tables" : [
        "[MECPRI02].[logbook].[dbo].[tblEvents]",
        "[MECPRI02].[logbook].[dbo].[tblNames]",
        "[MECPRI02].[logbook].[dbo].[tblLines]",
        "[MECPRI02].[logbook].[dbo].[tnlAreas]",
        "[MECPRI02].[logbook].[dbo].[tblEquip]"
    ],
    "transformation" : null,
    "transformation_exceptions": []
}