{
    "dependencies" : [],
    "extending" : null,
    "filters" : [],
    "name" : "production_cans",
    "notes" : [],
    "properties" : [],
    "servers" : [ "PROFICY" ],
    "table" : "",
    "transformation" : "model_production_cans",
    "transformation_exceptions": []
}