{
    "dependencies" : [],
    "extending" : null,
    "filters" : [],
    "name" : "rework_cans",
    "notes" : [],
    "output" : [],
    "parameters" : [],
    "properties" : [
        { "field" : "",             "type" : ""     },
        { "field" : "",             "type" : ""     },
        { "field" : "",             "type" : ""     },
        { "field" : "",             "type" : ""     },
        { "field" : "",             "type" : ""     },
        { "field" : "",             "type" : ""     },
        { "field" : "",             "type" : ""     },
        { "field" : "",             "type" : ""     },
        { "field" : "",             "type" : ""     },
        { "field" : "",             "type" : ""     },
        { "field" : "",             "type" : ""     },
        { "field" : "",             "type" : ""     },
        { "field" : "",             "type" : ""     },
        { "field" : "",             "type" : ""     },
        { "field" : "",             "type" : ""     }
    ],
    "servers" : [ "RANDOMIZER" ],
    "tables" : [],
    "transformation" : null,
    "transformation_exceptions": []
}