{
    "dependencies" : [],
    "extending" : "machine_stops", 
    "filters" : [
        "(TEF.TEFault_Name = 'Doval Reject' OR PU.PU_Desc LIKE '%Row Dump')"
    ],
    "name" : "scrap",
    "notes" : [],
    "properties" : [],
    "servers" : [ "PROFICY" ],
    "table" : null,
    "transformation" : null,
    "transformation_exceptions": []
}