{
    "dependencies" : [],
    "extending" : null,
    "filters" : [],
    "name" : "user_account",
    "notes" : [],
    "output" : [
        "json",
        "table",
        "text"
    ],
    "parameters" : [
        "username"
    ],
    "properties" : [
        { "field" : "",         "type" : ""     },
        { "field" : "",         "type" : ""     },
        { "field" : "",         "type" : ""     },
        { "field" : "",         "type" : ""     },
        { "field" : "",         "type" : ""     },
        { "field" : "",         "type" : ""     },
        { "field" : "",         "type" : ""     },
        { "field" : "",         "type" : ""     },
        { "field" : "",         "type" : ""     },
        { "field" : "",         "type" : ""     },
        { "field" : "",         "type" : ""     },
        { "field" : "",         "type" : ""     }
    ],
    "servers" : [ "ACTIVE_DIRECTORY" ],
    "tables" : [],
    "transformation" : null,
    "transformation_exceptions": []
}